%YAML 1.1
%TAG !u! tag:unity3d.com,2011:
--- !u!21 &2100000
Material:
  serializedVersion: 6
  m_ObjectHideFlags: 0
  m_PrefabParentObject: {fileID: 0}
  m_PrefabInternal: {fileID: 0}
  m_Name: Lavabrick2
  m_Shader: {fileID: 16, guid: 0000000000000000f000000000000000, type: 0}
  m_ShaderKeywords: 
  m_LightmapFlags: 0
  m_EnableInstancingVariants: 0
  m_DoubleSidedGI: 0
  m_CustomRenderQueue: -1
  stringTagMap: {}
  disabledShaderPasses: []
  m_SavedProperties:
    serializedVersion: 3
    m_TexEnvs:
    - _BumpMap:
        m_Texture: {fileID: 2800000, guid: e6fa04c8de8b4bd44b8bb1fdd43c1117, type: 3}
        m_Scale: {x: 1, y: 1}
        m_Offset: {x: 0, y: 0}
    - _Illum:
        m_Texture: {fileID: 2800000, guid: 0955224de7c53c243ad5ca9b3e75bcf8, type: 3}
        m_Scale: {x: 1, y: 1}
        m_Offset: {x: 0, y: 0}
    - _MainTex:
        m_Texture: {fileID: 2800000, guid: a4b9c1e9ba074fd4c9e472c5557848f1, type: 3}
        m_Scale: {x: 1, y: 1}
        m_Offset: {x: 0, y: 0}
    - _ParallaxMap:
        m_Texture: {fileID: 2800000, guid: ae0b7bd4503db2c469a0161ad4f9ce6f, type: 3}
        m_Scale: {x: 1, y: 1}
        m_Offset: {x: 0, y: 0}
    m_Floats:
    - _EdgeLength: 10
    - _Emission: 1
    - _EmissionLM: 0
    - _Parallax: 0.03673077
    - _Shininess: 0.57762134
    - _Smoothness: 0.5
    m_Colors:
    - _Color: {r: 0.6102941, g: 0.6102941, b: 0.6102941, a: 1}
    - _SpecColor: {r: 1, g: 0, b: 0, a: 1}
